Index,Key,Value
0,
1,4503,Alaster Gornar , 357 - Benton Elementary
2,4504,Selia Thridgould , 332 - Briarcliff Elementary
3,
4,
5,6758,Rochette Warkup , 497 - Topping Elementary
6,4508,Gouda Stacie , 898 - Hopewell Elementary
7,6759,Verdon Riannon , 484 - Fairmount Elementary
8,
9,
10,
11,
12,
13,
14,2265,Carver Booton , 1061 - Three Trails Elementary
15,
16,6769,Errick Mardall , 942 - Afrikan Centered Education Collegium Campus
17,
18,6771,Doggerell Peri , 204 - Nashua Elementary School
19,9023,Iwanowski Elane , 898 - Hopewell Elementary
20,2271,Ethelin Wimlet , 637 - Hazel Grove Elementary
21,9025,Hedaux Angie , 369 - Tiffany Ridge Elementary
22,
23,4525,Twyla Ebanks , 189 - Emerson Elementary
24,
25,
26,
27,
28,4530,Denys Aronovitz , 731 - Christian Ott Elementary
29,
30,9034,Spinelli Sunny , 114 - Fox Hill Elementary
31,
32,
33,4535,Hrinishin Casie , 561 - Indian Creek Elementary School
34,9037,Gerleit Brigit , 497 - Topping Elementary
35,
36,
37,
38,4540,Alic Howling , 209 - University Academy Charter School
39,
40,2291,Ralph Beadles , 1061 - Three Trails Elementary
41,
42,4544,Bowler Enrico , 565 - St. Paul's Episcopal Day School
43,
44,4546,Binstead Ciro , 561 - Indian Creek Elementary School
45,9048,Foss Nathaniel , 902 - Prairie Point Elementary
46,9049,Kory Navaro , 720 - Red Bridge Academy
47,
48,
49,2300,McQuarter Lorine , 667 - English Landing Elementary
50,6802,Grierson Rudy , 151 - Lewis and Clark Elementary School
51,6803,Fiske Lorettalorna , 160 - Alexander Doniphan Elementary School
52,
53,6806,Sommerly Ivor , 571 - Southeast Elementary
54,
55,2306,Normie Dolligon , 665 - Douglass Elementary
56,2307,Jessard Valaria , 851 - Northland Christian
57,4558,Chandal Pashley , 1025 - Franklin Elementary School
58,2309,Malynda Murrison , 1094 - Liberty Oaks Elementary School
59,4560,Waddie Kingsly , 697 - Sante Fe Trail Elementary
60,6812,Craine Dav , 248 - Kellybrook Elementary School
61,
62,
63,
64,9059,Petronille Nottingam , 720 - Red Bridge Academy
65,9060,Thaddus Percival , 902 - Prairie Point Elementary
66,9070,Des Pendle , 984 - Center Elementary School
67,
68,4570,Rogans Alister , 487 - Ravenwood Elementary
69,6822,Kip Ambler , 887 - Whitefield Academy
70,
71,6824,Petracco Jerrie , 975 - New Stanley Elementary
72,4574,Davita Mattessen , 620 - Manor Hill Elementary School
73,
74,2325,Mahmoud Haighton , 942 - Afrikan Centered Education Collegium Campus
75,4576,Otton Booth , 509 - Gracemor Elementary
76,6829,Bram Borzone , 204 - Nashua Elementary School
77,
78,
79,9083,Andrusov Lulita , 720 - Red Bridge Academy
80,
81,
82,
83,2334,L'oiseau Blaire , 426 - Lillian Schumacher Elementary School
84,6837,Sharvell Temple , 1061 - Three Trails Elementary
85,2336,Aldous O' , 571 - Southeast Elementary
86,
87,2338,Cinavas Bobbi , 887 - Whitefield Academy
88,
89,
90,
91,
92,2343,Dysert Obadiah , 675 - Chinn Elementary
93,4595,Obie Prahl , 942 - Afrikan Centered Education Collegium Campus
94,6847,Chucho Pionter , 151 - Lewis and Clark Elementary School
95,6848,Flori Dunphie , 675 - Chinn Elementary
96,
97,9101,Johannes Garard , 637 - Hazel Grove Elementary
98,
99,
100,4602,Jobi Gethins , 974 - Shoal Creek Elementary School
101,2352,Tommy Chichgar , 975 - New Stanley Elementary
102,4604,Garrod Quintana , 330 - Hillcrest Elementary
103,9106,Chappell Carlye , 683 - Sugar Creek Elementary
104,6857,Glen Tuffley , 151 - Lewis and Clark Elementary School
105,
106,
107,4609,Sparham Gilli , 675 - Chinn Elementary
108,9112,Duane McPhelimy , 1089 - The Pembroke Hill School
109,
110,2361,O'Sheerin Peggi , 151 - Lewis and Clark Elementary School
111,
112,
113,9117,Hendrick Roseanna , 426 - Lillian Schumacher Elementary School
114,
115,
116,6869,Strettell Jimmie , 114 - Fox Hill Elementary
117,
118,6871,Stepha O'Corrane , 288 - Ridgeview Elementary School
119,9123,Elspeth Leavesley , 478 - St. Patrick School
120,9124,Heiden Saw , 426 - Lillian Schumacher Elementary School
121,
122,
123,6876,Nurcombe Jade , 357 - Benton Elementary
124,
125,
126,
127,
128,
129,
130,
131,9135,Darley Alain , 420 - Union Chapel Elementary
132,4634,Marga Geddes , 305 - Linden West Elementary
133,4635,Brigit Nisen , 565 - St. Paul's Episcopal Day School
134,
135,6888,Mufi Muckloe , 637 - Hazel Grove Elementary
136,
137,9141,Matthias Vasyutochkin , 974 - Shoal Creek Elementary School
138,
139,
140,
141,
142,
143,2394,Smolan Wynnie , 436 - Rising Hill Elementary
144,
145,4647,Rufe Hollidge , 942 - Afrikan Centered Education Collegium Campus
146,9149,Agnesse Brands , 491 - Warren Hills Elementary School
147,
148,
149,9153,Temple Tissington , 809 - Hawthorn Elementary
150,6903,Neddy Stickler , 330 - Hillcrest Elementary
151,9154,Bald Kemwal , 720 - Red Bridge Academy
152,
153,
154,6907,Clemmett Dilan , 580 - Line Creek Elementary
155,
156,4658,Trelevan Mitchel , 209 - University Academy Charter School
157,
158,9162,Lamort Sayres , 357 - Benton Elementary
159,
160,9164,Farleigh Glenden , 637 - Hazel Grove Elementary
161,
162,
163,
164,
165,
166,
167,
168,
169,4671,Jordon Mirams , 681 - Scott Elementary
170,
171,
172,2423,Barbabra Walasik , 328 - Bell Prairie Elementary
173,
174,
175,
176,
177,
178,
179,
180,
181,
182,
183,6936,Nanelli Nicky , 681 - Scott Elementary
184,
185,6938,Ventris Mae , 288 - Ridgeview Elementary School
186,
187,6940,Ashlan Prendeguest , 731 - Christian Ott Elementary
188,9192,Tillie Traves , 497 - Topping Elementary
189,
190,2441,Postance Hunfredo , 436 - Rising Hill Elementary
191,
192,2443,Spellissy Ulrika , 736 - Chouteau Elementary
193,
194,
195,2446,Lea Peedell , 683 - Sugar Creek Elementary
196,6949,Thurstan Reeve , 270 - Maplewood Elementary
197,
198,2449,Saidee Danilchik , 270 - Maplewood Elementary
199,6952,Ambridge Leontine , 620 - Manor Hill Elementary School
200,4702,Basil Smithies , 718 - Maple Elementary
201,9205,Bridges Forbes , 1094 - Liberty Oaks Elementary School
202,6955,Annear Kassi , 975 - New Stanley Elementary
203,
204,
205,4707,Granleese Hasty , 305 - Linden West Elementary
206,2457,Rafi Elsbury , 509 - Gracemor Elementary
207,9202,Georgi Leydon , 1052 - Renner Elementary
208,4710,Jzak Addi , 1094 - Liberty Oaks Elementary School
209,6962,Wisden Paola , 561 - Indian Creek Elementary School
210,
211,9211,Bails Halli , 736 - Chouteau Elementary
212,
213,
214,
215,6968,Ganforthe Domingo , 1025 - Franklin Elementary School
216,4718,Ginner Ilene , 426 - Lillian Schumacher Elementary School
217,
218,2469,Buffy Callingham , 1089 - The Pembroke Hill School
219,6971,Bowness Had , 420 - Union Chapel Elementary
220,6972,Klimkowski Gabbi , 487 - Ravenwood Elementary
221,9225,Guillemette Pashby , 881 - Graden Elementary
222,
223,2474,Dorkin Nate , 580 - Line Creek Elementary
224,2475,Jessup Carmencita , 790 - Boone Elementary School
225,
226,
227,6976,Hynde Ravi , 731 - Christian Ott Elementary
228,2479,Jacqueline Linay , 637 - Hazel Grove Elementary
229,
230,
231,6984,Grace Rogliero , 665 - Douglass Elementary
232,
233,
234,
235,
236,2487,Kiel Johnes , 851 - Northland Christian
237,
238,
239,
240,
241,9245,Dalliwater Bernhard , 887 - Whitefield Academy
242,
243,4745,Bethany Colley , 790 - Boone Elementary School
244,
245,4747,Vania Welland , 478 - St. Patrick School
246,
247,
248,9252,Allyson Oakman , 790 - Boone Elementary School
249,
250,2501,Billing Nevins , 993 - Gladden Elementary
251,
252,9256,Yevette Milby , 1025 - Franklin Elementary School
253,
254,7007,Hanfrey Hyacintha , 720 - Red Bridge Academy
255,
256,
257,
258,
259,
260,2511,Brookson Virgie , 426 - Lillian Schumacher Elementary School
261,
262,
263,2514,Kath Kobu , 1094 - Liberty Oaks Elementary School
264,
265,
266,7019,Summerlad Shepperd , 288 - Ridgeview Elementary School
267,
268,
269,9273,Marzelle Kaylil , 484 - Fairmount Elementary
270,
271,
272,
273,
274,
275,
276,
277,
278,
279,7032,Bernier Myra , 1089 - The Pembroke Hill School
280,9283,Michaeline Perett , 974 - Shoal Creek Elementary School
281,
282,
283,
284,
285,
286,
287,
288,9292,Collin Claessens , 426 - Lillian Schumacher Elementary School
289,
290,9294,Hartmann Cortie , 736 - Chouteau Elementary
291,
292,9296,Klimt Salem , 151 - Lewis and Clark Elementary School
293,2544,Ilise Pinsent , 571 - Southeast Elementary
294,
295,
296,
297,2548,Rhona Belham , 978 - Whittier Elementary
298,7050,Devlin Eggers , 270 - Maplewood Elementary
299,2550,Revkah Statersfield , 665 - Douglass Elementary
300,
301,
302,4804,Hof Cordelie , 667 - English Landing Elementary
303,
304,
305,
306,7059,Brands Abagail , 270 - Maplewood Elementary
307,9310,Denni Harnett , 942 - Afrikan Centered Education Collegium Campus
308,
309,
310,
311,
312,
313,7066,Bachmann Abbey , 209 - University Academy Charter School
314,
315,
316,7069,Labrone Matthieu , 561 - Indian Creek Elementary School
317,7070,Trevaskus Sherilyn , 942 - Afrikan Centered Education Collegium Campus
318,7071,Christabel Annott , 305 - Linden West Elementary
319,9322,Sashenka Haymes , 420 - Union Chapel Elementary
320,9320,Janessa Teek , 720 - Red Bridge Academy
321,
322,7075,Bil Jantot , 736 - Chouteau Elementary
323,
324,
325,9329,Reiglar Valera , 887 - Whitefield Academy
326,
327,7080,Kasper Dowley , 1094 - Liberty Oaks Elementary School
328,
329,9333,Proud Lavina , 637 - Hazel Grove Elementary
330,4832,Schuck Adelind , 484 - Fairmount Elementary
331,7084,Chad Olivo , 851 - Northland Christian
332,
333,
334,4836,Waskett Keefer , 369 - Tiffany Ridge Elementary
335,
336,
337,
338,2589,Hess Nikolaus , 189 - Emerson Elementary
339,
340,
341,
342,2593,Lago Alexio , 683 - Sugar Creek Elementary
343,9347,Marius Lundy , 1087 - Gashland Elementary
344,
345,
346,4848,Hugnet Laney , 1025 - Franklin Elementary School
347,
348,2599,Auria Lindl , 1025 - Franklin Elementary School
349,
350,9354,Braben Elvis , 571 - Southeast Elementary
351,2602,Guilloton Petronia , 114 - Fox Hill Elementary
352,9355,Staniland Steffie , 491 - Warren Hills Elementary School
353,
354,
355,2606,Augusto Muckeen , 426 - Lillian Schumacher Elementary School
356,4858,Trustrie Jimmy , 305 - Linden West Elementary
357,
358,
359,7108,Almack Constance , 204 - Nashua Elementary School
360,7112,Udale Hughman , 718 - Maple Elementary
361,7114,De Bruin , 665 - Douglass Elementary
362,
363,7116,Gerrie Orteu , 580 - Line Creek Elementary
364,9359,Adams Hawkes , 851 - Northland Christian
365,4867,Cathie Polotti , 209 - University Academy Charter School
366,7119,Vasily Deering , 1061 - Three Trails Elementary
367,
368,
369,
370,
371,
372,4874,Croydon Renard , 1087 - Gashland Elementary
373,7126,Xever Marchment , 270 - Maplewood Elementary
374,
375,
376,
377,9381,Lamberts Philippine , 620 - Manor Hill Elementary School
378,4880,Valencia Brabham , 497 - Topping Elementary
379,7132,Cristou Mallorie , 1061 - Three Trails Elementary
380,2631,Piercey Aubry , 1052 - Renner Elementary
381,
382,
383,
384,
385,9389,Flecknoe Der , 993 - Gladden Elementary
386,
387,9391,Knutsen Kata , 718 - Maple Elementary
388,
389,
390,
391,
392,4894,Essa Lavall , 683 - Sugar Creek Elementary
393,
394,
395,2646,Galey Fernando , 114 - Fox Hill Elementary
396,2647,Blincoe Garwin , 974 - Shoal Creek Elementary School
397,9400,Cayla Dellar , 881 - Graden Elementary
398,2649,Loralee Ker , 561 - Indian Creek Elementary School
399,
400,9404,Gallaher Bentlee , 484 - Fairmount Elementary
401,
402,
403,9407,Obidiah Dowty , 697 - Sante Fe Trail Elementary
404,4906,Bamber Malinde , 790 - Boone Elementary School
405,
406,4908,Henryetta Djokic , 189 - Emerson Elementary
407,
408,
409,2660,Webben Alfonse , 665 - Douglass Elementary
410,7162,Darleen Lillywhite , 620 - Manor Hill Elementary School
411,
412,9416,Nahum Rozsa , 509 - Gracemor Elementary
413,9413,Laurette Caudrey , 683 - Sugar Creek Elementary
414,
415,7168,Pepon Krystal , 731 - Christian Ott Elementary
416,2667,Bamlett Hernando , 209 - University Academy Charter School
417,4919,Doreward Doreen , 887 - Whitefield Academy
418,
419,
420,
421,
422,9426,Mathwen Leena , 984 - Center Elementary School
423,9427,Markwell Rolph , 565 - St. Paul's Episcopal Day School
424,
425,2676,Alberta Josefs , 942 - Afrikan Centered Education Collegium Campus
426,4928,Brok Josifovitz , 720 - Red Bridge Academy
427,
428,
429,9429,Cron Annabell , 1061 - Three Trails Elementary
430,
431,
432,
433,
434,7187,Claiborne Hevey , 790 - Boone Elementary School
435,2686,Jeralee Karlolczak , 305 - Linden West Elementary
436,7189,Clougher Reggy , 357 - Benton Elementary
437,
438,
439,
440,
441,
442,
443,2694,Methringham Reynard , 620 - Manor Hill Elementary School
444,
445,
446,7199,Drugi Rumney , 718 - Maple Elementary
447,
448,2699,MacCrackan Ennis , 491 - Warren Hills Elementary School
449,
450,
451,
452,
453,2704,Feldstern Elisha , 484 - Fairmount Elementary
454,4955,Briant O'Carroll , 478 - St. Patrick School
455,9459,Marlin Wealthall , 151 - Lewis and Clark Elementary School
456,
457,7210,Hessenthaler Rebeca , 1089 - The Pembroke Hill School
458,
459,
460,7213,Spinello Randy , 637 - Hazel Grove Elementary
461,
462,
463,
464,
465,
466,
467,
468,2719,Ann-marie Milnes , 487 - Ravenwood Elementary
469,
470,
471,9475,Dory Pamment , 697 - Sante Fe Trail Elementary
472,4974,Goolden Arda , 305 - Linden West Elementary
473,
474,
475,
476,2727,Regler Bonnibelle , 478 - St. Patrick School
477,
478,7231,Ellcock Ileane , 681 - Scott Elementary
479,
480,
481,4983,Borden Packwood , 683 - Sugar Creek Elementary
482,4984,Jeyness Cosme , 1052 - Renner Elementary
483,
484,
485,7238,Cher Mourant , 270 - Maplewood Elementary
486,
487,
488,7241,Manshaw Consalve , 1061 - Three Trails Elementary
489,
490,9485,Maximilianus Dutnall , 332 - Briarcliff Elementary
491,
492,
493,9497,Ara McCarney , 561 - Indian Creek Elementary School
494,
495,
496,7249,Mia Oram , 420 - Union Chapel Elementary
497,7250,Jacquelin Kalberer , 436 - Rising Hill Elementary
498,
499,
500,9504,Hal Semonin , 720 - Red Bridge Academy
501,
502,
503,
504,7257,Issi Fielding , 561 - Indian Creek Elementary School
505,9508,Cahra Everest , 509 - Gracemor Elementary
506,
507,
508,
509,
510,
511,
512,5014,Lanny Stelli , 993 - Gladden Elementary
513,
514,2765,Sharia Brownsworth , 487 - Ravenwood Elementary
515,
516,
517,
518,
519,
520,
521,9525,Cindelyn Saull , 902 - Prairie Point Elementary
522,
523,
524,
525,
526,
527,
528,5030,Franz Jonsson , 114 - Fox Hill Elementary
529,
530,
531,9535,Jamison Wehner , 426 - Lillian Schumacher Elementary School
532,9536,Hussey Maje , 487 - Ravenwood Elementary
533,9537,Marleah Challoner , 697 - Sante Fe Trail Elementary
534,5036,Jaime Ingreda , 478 - St. Patrick School
535,
536,
537,
538,
539,2790,Morry Crouch , 478 - St. Patrick School
540,
541,5043,Lilllie Michell , 487 - Ravenwood Elementary
542,5044,Melrose Bernadene , 571 - Southeast Elementary
543,2794,Wolfenden Isidora , 509 - Gracemor Elementary
544,7296,Row Sadella , 718 - Maple Elementary
545,9545,Mitchall Eldridge , 497 - Topping Elementary
546,
547,5049,Shelba Jovicic , 478 - St. Patrick School
548,2799,Eadmeads Seka , 189 - Emerson Elementary
549,
550,
551,5053,Casone Lotta , 204 - Nashua Elementary School
552,
553,9557,Radbourn Iain , 620 - Manor Hill Elementary School
554,
555,
556,5058,Righy Zachery , 1089 - The Pembroke Hill School
557,7310,Corney Wilma , 484 - Fairmount Elementary
558,
559,7312,Towney Dancy , 491 - Warren Hills Elementary School
560,
561,
562,2813,Larroway Benoit , 683 - Sugar Creek Elementary
563,5065,Normie Craxford , 484 - Fairmount Elementary
564,2815,Melesa Stockford , 902 - Prairie Point Elementary
565,
566,
567,
568,
569,2820,Nenci Malorie , 697 - Sante Fe Trail Elementary
570,2821,Abramo Edelmann , 731 - Christian Ott Elementary
571,
572,
573,
574,9578,Aurelie Pigney , 151 - Lewis and Clark Elementary School
575,
576,7329,MacGhee Jackqueline , 491 - Warren Hills Elementary School
577,2828,Roddell Pattin , 887 - Whitefield Academy
578,
579,
580,
581,
582,2833,Klauber Lindsey , 984 - Center Elementary School
583,2834,Pearle Blanpein , 683 - Sugar Creek Elementary
584,7336,Chelsie Tune , 160 - Alexander Doniphan Elementary School
585,7337,Gardiner Beckett , 809 - Hawthorn Elementary
586,
587,
588,
589,
590,
591,
592,
593,9597,Jesselyn Roscamp , 1052 - Renner Elementary
594,
595,
596,
597,
598,
599,9603,Scowcroft Granny , 580 - Line Creek Elementary
600,
601,
602,
603,9607,Krysiak Robenia , 902 - Prairie Point Elementary
604,5106,Pellamont Kassi , 209 - University Academy Charter School
605,2856,Linnell Chansonnau , 887 - Whitefield Academy
606,
607,
608,
609,7362,McAlinion Dorice , 887 - Whitefield Academy
610,
611,5113,Lowell Cottam , 420 - Union Chapel Elementary
612,
613,7366,Conwell Carena , 580 - Line Creek Elementary
614,9618,Waldemar Cossam , 683 - Sugar Creek Elementary
615,
616,
617,
618,9622,Conry Caril , 667 - English Landing Elementary
619,
620,5122,Dubock Serena , 1052 - Renner Elementary
621,
622,7375,Stoney Roch , 305 - Linden West Elementary
623,9627,Clyma Sheila-kathryn , 1094 - Liberty Oaks Elementary School
624,
625,
626,5128,Jennilee Pepperrall , 887 - Whitefield Academy
627,
628,
629,
630,
631,2882,Sleigh Natty , 993 - Gladden Elementary
632,9635,Fleetwood Carolann , 1094 - Liberty Oaks Elementary School
633,
634,
635,
636,
637,
638,
639,
640,
641,
642,
643,
644,2895,Owbrick Cash , 160 - Alexander Doniphan Elementary School
645,
646,
647,
648,9652,O'Fallowne Doralin , 288 - Ridgeview Elementary School
649,7402,Wenona Owthwaite , 248 - Kellybrook Elementary School
650,
651,
652,
653,5155,Myrle De , 565 - St. Paul's Episcopal Day School
654,5156,Petunia Sunley , 497 - Topping Elementary
655,
656,
657,5159,Elwyn Heskin , 357 - Benton Elementary
658,7411,Arabella Tidy , 887 - Whitefield Academy
659,9662,Korella Mounce , 436 - Rising Hill Elementary
660,
661,
662,2913,Chantal Kenealy , 991 - Red Bridge Elementary School
663,
664,5166,Mathilde Glitherow , 620 - Manor Hill Elementary School
665,2916,Doll Drohane , 270 - Maplewood Elementary
666,
667,
668,7417,Dafydd Rycca , 420 - Union Chapel Elementary
669,9672,Putnam Layne , 1061 - Three Trails Elementary
670,2921,Figiovanni Jaye , 984 - Center Elementary School
671,
672,7425,Sher Hastwell , 491 - Warren Hills Elementary School
673,7426,'Orto Jazmin , 189 - Emerson Elementary
674,
675,
676,
677,
678,7431,Diehn Valentin , 151 - Lewis and Clark Elementary School
679,2930,Tatiana Ledwich , 160 - Alexander Doniphan Elementary School
680,
681,
682,
683,9687,Glass Cosme , 790 - Boone Elementary School
684,
685,
686,7439,Antushev Star , 1052 - Renner Elementary
687,7440,Marice MacPherson , 975 - New Stanley Elementary
688,7441,Nikaniki Ockwell , 881 - Graden Elementary
689,9692,Chismon Georas , 887 - Whitefield Academy
690,
691,
692,
693,
694,
695,
696,5198,Matthias Feares , 189 - Emerson Elementary
697,
698,2949,Howey Guillerman , 1025 - Franklin Elementary School
699,5201,Ros Dacca , 151 - Lewis and Clark Elementary School
700,
701,
702,
703,
704,
705,
706,7459,Jackie Findley , 328 - Bell Prairie Elementary
707,9710,Beachem Marcelline , 902 - Prairie Point Elementary
708,
709,9713,Grog Whitman , 497 - Topping Elementary
710,
711,
712,
713,
714,
715,5217,Flook Erin , 151 - Lewis and Clark Elementary School
716,5218,Flagg Nico , 509 - Gracemor Elementary
717,
718,
719,
720,
721,2972,Agna Slimon , 637 - Hazel Grove Elementary
722,
723,
724,
725,5227,Arnatt Ambrose , 667 - English Landing Elementary
726,9730,Maria Luckett , 731 - Christian Ott Elementary
727,
728,7481,Mikey Woodworth , 436 - Rising Hill Elementary
729,9733,Roger Wilkins , 436 - Rising Hill Elementary
730,
731,5233,Jabez Roote , 731 - Christian Ott Elementary
732,7484,Nannette Loblie , 809 - Hawthorn Elementary
733,
734,
735,7488,Skell Rustadge , 790 - Boone Elementary School
736,
737,
738,
739,7492,Noemi Duffett , 993 - Gladden Elementary
740,9735,Whitman Fullom , 620 - Manor Hill Elementary School
741,
742,
743,
744,
745,
746,
747,
748,9752,Lawrence Maylour , 160 - Alexander Doniphan Elementary School
749,9753,Drewe Lenci , 189 - Emerson Elementary
750,
751,
752,
753,
754,
755,
756,
757,
758,
759,
760,7513,Goodinson Toddie , 887 - Whitefield Academy
761,
762,
763,
764,
765,5267,Erich Tuma , 667 - English Landing Elementary
766,7518,Guendolen Gasnell , 484 - Fairmount Elementary
767,
768,
769,
770,3021,Tanhya Roberts , 571 - Southeast Elementary
771,
772,7525,Rosita Pert , 357 - Benton Elementary
773,
774,7527,Matuschek Seymour , 898 - Hopewell Elementary
775,
776,7529,Tonnie Ridding , 984 - Center Elementary School
777,
778,9782,Wimbury Sigismundo , 993 - Gladden Elementary
779,
780,
781,
782,
783,
784,
785,7538,Cord Coggell , 369 - Tiffany Ridge Elementary
786,9790,Bendicty Farrall , 328 - Bell Prairie Elementary
787,5289,Berkly Atkins , 330 - Hillcrest Elementary
788,
789,
790,
791,
792,
793,
794,
795,3046,Blasli Timmie , 718 - Maple Elementary
796,
797,3048,Berndtsson Hali , 620 - Manor Hill Elementary School
798,
799,
800,
801,3052,Erwin Leonie , 565 - St. Paul's Episcopal Day School
802,5303,Trudey Rudolph , 736 - Chouteau Elementary
803,
804,7557,Diter Emalia , 580 - Line Creek Elementary
805,7554,Reade Cody , 942 - Afrikan Centered Education Collegium Campus
806,
807,
808,9812,Camden Jehanna , 1094 - Liberty Oaks Elementary School
809,
810,9814,Bondy Speerman , 887 - Whitefield Academy
811,
812,9816,Barritt De , 1025 - Franklin Elementary School
813,
814,
815,
816,
817,
818,5320,Cesar Swadlinge , 369 - Tiffany Ridge Elementary
819,
820,
821,5323,Serck Lucho , 332 - Briarcliff Elementary
822,
823,
824,5326,Peggi Conningham , 305 - Linden West Elementary
825,5327,Cirilo Mildner , 851 - Northland Christian
826,
827,5329,Ferandez Daisy , 565 - St. Paul's Episcopal Day School
828,3079,Kalila Brayshaw , 718 - Maple Elementary
829,9832,Denise Owens , 328 - Bell Prairie Elementary
830,
831,
832,3083,Lionello Pickavance , 160 - Alexander Doniphan Elementary School
833,
834,
835,9839,Trev Reddick , 509 - Gracemor Elementary
836,
837,
838,
839,3090,Berenice Shenton , 993 - Gladden Elementary
840,
841,3092,Riep Janice , 305 - Linden West Elementary
842,5344,Coners Jeri , 487 - Ravenwood Elementary
843,
844,7597,Itzak Madge , 993 - Gladden Elementary
845,
846,
847,
848,
849,
850,
851,3102,McCadden Kalindi , 675 - Chinn Elementary
852,
853,
854,
855,9859,Ussher Giffard , 497 - Topping Elementary
856,
857,
858,
859,
860,
861,
862,
863,
864,
865,9869,Annabel Leavold , 436 - Rising Hill Elementary
866,
867,9871,Carolan Corbridge , 328 - Bell Prairie Elementary
868,3119,McLanaghan Bambie , 974 - Shoal Creek Elementary School
869,5370,Betteann Stegell , 991 - Red Bridge Elementary School
870,3121,Kernaghan Tallulah , 189 - Emerson Elementary
871,
872,7621,Binks Edeline , 484 - Fairmount Elementary
873,9877,Culham Hussein , 151 - Lewis and Clark Elementary School
874,
875,
876,5378,Baxy Seckom , 1094 - Liberty Oaks Elementary School
877,7629,Kibard Currie , 426 - Lillian Schumacher Elementary School
878,
879,5381,Selig Sulman , 509 - Gracemor Elementary
880,
881,7634,Suki Manus , 484 - Fairmount Elementary
882,
883,
884,
885,
886,
887,
888,7641,Royall Islep , 1025 - Franklin Elementary School
889,
890,
891,
892,9896,Elizabeth McGriffin , 189 - Emerson Elementary
893,
894,3145,Kippy Elms , 902 - Prairie Point Elementary
895,
896,3147,Dunstan Ulrika , 902 - Prairie Point Elementary
897,3148,Andriana Winram , 426 - Lillian Schumacher Elementary School
898,5400,Alexa Whitfield , 620 - Manor Hill Elementary School
899,
900,
901,
902,9906,Smardon Marge , 681 - Scott Elementary
903,5405,Kahaleel Ambrogelli , 736 - Chouteau Elementary
904,5406,Goulding Toni , 436 - Rising Hill Elementary
905,
906,
907,
908,7661,Ina Aherne , 991 - Red Bridge Elementary School
909,
910,
911,
912,5414,Egan Garrick , 160 - Alexander Doniphan Elementary School
913,
914,5416,Ryon Sidgwick , 330 - Hillcrest Elementary
915,7668,Rozele Hover , 357 - Benton Elementary
916,
917,
918,
919,
920,
921,
922,7675,Brianne O' , 1089 - The Pembroke Hill School
923,
924,5426,Julissa MacAllister , 487 - Ravenwood Elementary
925,
926,
927,
928,
929,
930,
931,
932,
933,
934,
935,
936,
937,
938,5440,Pamella Winchurst , 478 - St. Patrick School
939,5441,Webster Burgh , 357 - Benton Elementary
940,
941,5443,Cartwight Darlene , 305 - Linden West Elementary
942,7694,Claudetta Jacques , 332 - Briarcliff Elementary
943,
944,3195,Bogies Auberon , 974 - Shoal Creek Elementary School
945,3196,Scurrer Ezechiel , 305 - Linden West Elementary
946,5448,Thomesson Rora , 1094 - Liberty Oaks Elementary School
947,3198,Derick Girone , 887 - Whitefield Academy
948,5449,de Chastelain , 978 - Whittier Elementary
949,7702,Abrami Marillin , 305 - Linden West Elementary
950,9945,Good Wallache , 974 - Shoal Creek Elementary School
951,
952,
953,
954,
955,9950,Elianore Caps , 991 - Red Bridge Elementary School
956,
957,
958,
959,9963,Stoneley Shanda , 902 - Prairie Point Elementary
960,9964,Conigsby Si , 942 - Afrikan Centered Education Collegium Campus
961,5463,Ribeiro Tammy , 204 - Nashua Elementary School
962,
963,
964,
965,
966,
967,
968,9972,Trever Jeandet , 736 - Chouteau Elementary
969,
970,7723,Harlene Hill , 975 - New Stanley Elementary
971,
972,3223,Waumsley Fairfax , 1094 - Liberty Oaks Elementary School
973,5475,Mountlow Brady , 887 - Whitefield Academy
974,
975,
976,5478,Silverman Vance , 160 - Alexander Doniphan Elementary School
977,
978,
979,9983,Ariel Palek , 984 - Center Elementary School
980,
981,
982,
983,
984,
985,
986,
987,
988,
989,9993,Celina Drains , 288 - Ridgeview Elementary School
990,
991,3242,Chris Rubenczyk , 580 - Line Creek Elementary
992,7744,Godfree Fonzo , 978 - Whittier Elementary
993,
994,
995,
996,
997,3248,Jacobo Noddle , 491 - Warren Hills Elementary School
998,
999,
1000,
1001,
1002,3253,Jepps Camella , 248 - Kellybrook Elementary School
1003,
1004,
1005,
1006,3257,Neeson Jeannie , 809 - Hawthorn Elementary
1007,5508,Kakalina Shire , 942 - Afrikan Centered Education Collegium Campus
1008,
1009,1009,Maybery Wynny , 974 - Shoal Creek Elementary School
1010,
1011,3262,Dugald Compston , 209 - University Academy Charter School
1012,
1013,5515,Lothario Bushen , 1087 - Gashland Elementary
1014,
1015,10019,Lackemann Denis , 565 - St. Paul's Episcopal Day School
1016,5518,Breeder Alick , 881 - Graden Elementary
1017,1017,Melicent Fincken , 487 - Ravenwood Elementary
1018,5519,Sheree Krienke , 667 - English Landing Elementary
1019,
1020,5522,Land Varne , 509 - Gracemor Elementary
1021,10021,Oren Coey , 571 - Southeast Elementary
1022,
1023,3274,Webster Killiam , 1052 - Renner Elementary
1024,3275,Fellenor Goldina , 484 - Fairmount Elementary
1025,
1026,10030,Waiter Atcheson , 1089 - The Pembroke Hill School
1027,7776,Aurthur Penk , 881 - Graden Elementary
1028,7781,Dud Child , 1089 - The Pembroke Hill School
1029,7782,Doidge Maryl , 248 - Kellybrook Elementary School
1030,3281,Pinchen Denyse , 851 - Northland Christian
1031,
1032,
1033,
1034,3285,Preator Vicki , 1025 - Franklin Elementary School
1035,3286,Winterbottom Alistair , 809 - Hawthorn Elementary
1036,5537,Aldin Cindi , 718 - Maple Elementary
1037,
1038,
1039,
1040,
1041,
1042,
1043,
1044,
1045,
1046,
1047,
1048,3299,Brokenshaw Mechelle , 580 - Line Creek Elementary
1049,1049,Pennuzzi Dela , 718 - Maple Elementary
1050,
1051,
1052,
1053,5555,Rumbellow Emelina , 151 - Lewis and Clark Elementary School
1054,10057,Gianolo Matty , 288 - Ridgeview Elementary School
1055,
1056,
1057,
1058,
1059,
1060,3311,Ebertz Vasilis , 898 - Hopewell Elementary
1061,
1062,
1063,
1064,
1065,5567,McCarlie Taite , 151 - Lewis and Clark Elementary School
1066,
1067,
1068,
1069,1069,Trescha Elsdon , 898 - Hopewell Elementary
1070,5571,Irena Benjafield , 993 - Gladden Elementary
1071,
1072,5574,Peri Sweett , 305 - Linden West Elementary
1073,
1074,5576,Ravenscroftt Ora , 681 - Scott Elementary
1075,
1076,5578,Davidesco Bink , 369 - Tiffany Ridge Elementary
1077,10080,Annemarie Croom , 426 - Lillian Schumacher Elementary School
1078,
1079,1079,Salomone Pitkins , 270 - Maplewood Elementary
1080,10083,Banner Paola , 898 - Hopewell Elementary
1081,1081,Fitzharris Juline , 288 - Ridgeview Elementary School
1082,7835,Coplestone Bertha , 369 - Tiffany Ridge Elementary
1083,10086,Cletus Fryd , 1061 - Three Trails Elementary
1084,1084,Melissa Willmot , 332 - Briarcliff Elementary
1085,
1086,
1087,5589,Scroggs Cassaundra , 675 - Chinn Elementary
1088,
1089,3340,Sydney Heber , 270 - Maplewood Elementary
1090,
1091,3342,Briney Stopper , 637 - Hazel Grove Elementary
1092,3343,Mirella Wreford , 209 - University Academy Charter School
1093,10096,Kelbee Skade , 357 - Benton Elementary
1094,
1095,5593,Griffithe Cindie , 151 - Lewis and Clark Elementary School
1096,5598,Haeften Sybille , 204 - Nashua Elementary School
1097,7849,Henri Perry , 114 - Fox Hill Elementary
1098,10102,Wightman Ninette , 681 - Scott Elementary
1099,5601,Curwen Jerri , 204 - Nashua Elementary School
1100,
1101,
1102,5604,Rappaport Jakie , 436 - Rising Hill Elementary
1103,3354,Down Dion , 357 - Benton Elementary
1104,1104,MacKibbon Claudelle , 305 - Linden West Elementary
1105,7858,Dodwell Heinrik , 436 - Rising Hill Elementary
1106,7859,Stivens Ryley , 887 - Whitefield Academy
1107,
1108,3359,Danilchenko Bucky , 328 - Bell Prairie Elementary
1109,5611,Alain Rubinovici , 491 - Warren Hills Elementary School
1110,7862,Van den , 478 - St. Patrick School
1111,
1112,10112,Charlotte Honisch , 697 - Sante Fe Trail Elementary
1113,
1114,
1115,1115,Tamma Peche , 665 - Douglass Elementary
1116,3366,Shovelton Ailis , 881 - Graden Elementary
1117,1117,Hallsy Itzchaky , 665 - Douglass Elementary
1118,
1119,7872,Peaseman Cinderella , 491 - Warren Hills Elementary School
1120,
1121,
1122,7875,Michel Kalkofen , 1061 - Three Trails Elementary
1123,
1124,
1125,
1126,3377,Vernor Budgey , 491 - Warren Hills Elementary School
1127,
1128,
1129,5631,Hixley Kennan , 1052 - Renner Elementary
1130,7882,Patti Morfey , 984 - Center Elementary School
1131,
1132,
1133,
1134,
1135,10139,Wallie Malacrida , 675 - Chinn Elementary
1136,1136,Der Kleewein , 993 - Gladden Elementary
1137,
1138,
1139,1139,Elwyn Mapstone , 561 - Indian Creek Elementary School
1140,
1141,1141,Holehouse Carson , 270 - Maplewood Elementary
1142,5644,Lidgerton Susie , 637 - Hazel Grove Elementary
1143,
1144,
1145,1145,Lisette Plumb , 675 - Chinn Elementary
1146,5647,Revitt Ripley , 887 - Whitefield Academy
1147,7900,Ange Winston , 681 - Scott Elementary
1148,1148,Ralls Odey , 942 - Afrikan Centered Education Collegium Campus
1149,5651,Brice Nurny , 328 - Bell Prairie Elementary
1150,
1151,
1152,5654,Dionne Battelle , 1061 - Three Trails Elementary
1153,
1154,1154,Amble Lambird , 436 - Rising Hill Elementary
1155,
1156,
1157,3408,Peggrem Kassi , 484 - Fairmount Elementary
1158,7910,Matteucci Clarisse , 675 - Chinn Elementary
1159,5661,Durant Melisent , 974 - Shoal Creek Elementary School
1160,5662,Worthy Bellhouse , 731 - Christian Ott Elementary
1161,3412,Bennet Osbert , 720 - Red Bridge Academy
1162,3413,Shaun Gaddie , 420 - Union Chapel Elementary
1163,5665,Carin Dyche , 809 - Hawthorn Elementary
1164,7913,Godiva Manes , 332 - Briarcliff Elementary
1165,10165,Gillespey Gabbie , 420 - Union Chapel Elementary
1166,3417,Chessor Estele , 332 - Briarcliff Elementary
1167,10171,Fae Everil , 288 - Ridgeview Elementary School
1168,1168,Dillie Ivanikhin , 248 - Kellybrook Elementary School
1169,5670,Readett Obediah , 1025 - Franklin Elementary School
1170,
1171,
1172,
1173,7926,Nicolette Penas , 665 - Douglass Elementary
1174,
1175,
1176,10180,Littlejohn Lorianne , 204 - Nashua Elementary School
1177,10181,Ev Holt , 697 - Sante Fe Trail Elementary
1178,
1179,
1180,10184,Dilrew Ramon , 887 - Whitefield Academy
1181,
1182,
1183,1183,Wilde Audrie , 1094 - Liberty Oaks Elementary School
1184,5686,Ramsay Haddow , 942 - Afrikan Centered Education Collegium Campus
1185,
1186,
1187,
1188,
1189,
1190,
1191,3442,Rolando Duncklee , 683 - Sugar Creek Elementary
1192,7945,Neall Gaucher , 114 - Fox Hill Elementary
1193,
1194,7947,Kerrin Renals , 974 - Shoal Creek Elementary School
1195,
1196,
1197,
1198,
1199,1199,Raunds Laurel , 497 - Topping Elementary
1200,
1201,
1202,3453,Bernollet Nerissa , 1094 - Liberty Oaks Elementary School
1203,
1204,5706,Walsh Ausiello , 681 - Scott Elementary
1205,
1206,
1207,
1208,
1209,
1210,3461,Illidge Caspar , 270 - Maplewood Elementary
1211,1211,Lintin Leonanie , 420 - Union Chapel Elementary
1212,5713,Cormode Hagan , 328 - Bell Prairie Elementary
1213,5715,Bradly Easum , 369 - Tiffany Ridge Elementary
1214,
1215,1215,Kippy Picford , 478 - St. Patrick School
1216,3466,Isak Marty , 665 - Douglass Elementary
1217,
1218,10222,Benwell Jacquenette , 620 - Manor Hill Elementary School
1219,
1220,5722,Ortensia McGinlay , 487 - Ravenwood Elementary
1221,
1222,
1223,3474,Scain Seline , 675 - Chinn Elementary
1224,
1225,
1226,7979,Dye Mercy , 665 - Douglass Elementary
1227,
1228,1228,Kaye Croci , 305 - Linden West Elementary
1229,
1230,7983,Antonetta Hildrew , 851 - Northland Christian
1231,7984,Ward Mogford , 491 - Warren Hills Elementary School
1232,1232,Barczynski Cyndia , 697 - Sante Fe Trail Elementary
1233,
1234,
1235,3486,Loveman Cynthia , 497 - Topping Elementary
1236,
1237,
1238,
1239,1239,Aggie Nunson , 620 - Manor Hill Elementary School
1240,
1241,10245,Schulken Shane , 328 - Bell Prairie Elementary
1242,
1243,
1244,7997,Swainson Marisa , 993 - Gladden Elementary
1245,5747,Brettel Meggy , 809 - Hawthorn Elementary
1246,
1247,3498,Durham Cortney , 189 - Emerson Elementary
1248,
1249,
1250,
1251,
1252,5754,Agace Maria , 114 - Fox Hill Elementary
1253,
1254,8007,Habbergham Stan , 357 - Benton Elementary
1255,1255,Kelway Feliza , 1089 - The Pembroke Hill School
1256,
1257,10261,Fookes Vicky , 565 - St. Paul's Episcopal Day School
1258,
1259,
1260,
1261,3512,Millom Raleigh , 151 - Lewis and Clark Elementary School
1262,
1263,
1264,10268,Cristin Deesly , 1025 - Franklin Elementary School
1265,10269,Waiter Raiston , 189 - Emerson Elementary
1266,
1267,1267,Mathilde Pontin , 484 - Fairmount Elementary
1268,8020,Johannes Norcliff , 665 - Douglass Elementary
1269,5771,Boycie Cluse , 288 - Ridgeview Elementary School
1270,
1271,3522,Shaine Picker , 248 - Kellybrook Elementary School
1272,10275,Rudiger Fadden , 332 - Briarcliff Elementary
1273,8026,Pippo Chippin , 718 - Maple Elementary
1274,1274,Cassey Shawley , 288 - Ridgeview Elementary School
1275,
1276,8029,Janus Desmund , 1089 - The Pembroke Hill School
1277,
1278,1278,Sunny Cristoforetti , 357 - Benton Elementary
1279,3530,Marthena Mattiassi , 978 - Whittier Elementary
1280,10284,Smallpeace Irene , 509 - Gracemor Elementary
1281,
1282,
1283,
1284,
1285,
1286,1286,Jessee Rochford , 1089 - The Pembroke Hill School
1287,5788,Donaugh Scala , 487 - Ravenwood Elementary
1288,5790,Luca Anya , 1089 - The Pembroke Hill School
1289,
1290,10294,Odelia Barrack , 491 - Warren Hills Elementary School
1291,
1292,
1293,
1294,
1295,3546,Glazier Conway , 683 - Sugar Creek Elementary
1296,
1297,
1298,
1299,
1300,
1301,
1302,5804,Searchfield Eda , 731 - Christian Ott Elementary
1303,5805,Vassily Buzza , 491 - Warren Hills Elementary School
1304,8057,Rosenbush Nikkie , 1087 - Gashland Elementary
1305,
1306,
1307,
1308,
1309,10313,Domengue Fabian , 683 - Sugar Creek Elementary
1310,
1311,
1312,
1313,
1314,
1315,3566,Dynah O'Finan , 902 - Prairie Point Elementary
1316,
1317,
1318,
1319,
1320,5822,Minni Gregor , 697 - Sante Fe Trail Elementary
1321,8073,Ainslie Mollen , 160 - Alexander Doniphan Elementary School
1322,8074,Stearn Tildie , 720 - Red Bridge Academy
1323,
1324,
1325,10329,Chery Pulbrook , 978 - Whittier Elementary
1326,
1327,3578,Guss Rochford , 497 - Topping Elementary
1328,
1329,
1330,
1331,
1332,
1333,8086,Scrace Maure , 1089 - The Pembroke Hill School
1334,3585,Reinhardt Cosimo , 204 - Nashua Elementary School
1335,
1336,
1337,8090,Shara Quinion , 851 - Northland Christian
1338,
1339,
1340,8093,Daintrey Goldy , 487 - Ravenwood Elementary
1341,
1342,
1343,
1344,8097,Claus Capper , 974 - Shoal Creek Elementary School
1345,
1346,
1347,
1348,
1349,
1350,5852,Rolland Drewry , 620 - Manor Hill Elementary School
1351,
1352,
1353,8106,Jakoubec Rosetta , 984 - Center Elementary School
1354,
1355,
1356,8109,Elcomb Marlie , 328 - Bell Prairie Elementary
1357,
1358,
1359,
1360,
1361,
1362,3613,Hollingsby Shelba , 565 - St. Paul's Episcopal Day School
1363,
1364,
1365,
1366,
1367,5869,Realy Hettie , 565 - St. Paul's Episcopal Day School
1368,
1369,10373,Willdon Boakes , 851 - Northland Christian
1370,10374,Kedie Chase , 683 - Sugar Creek Elementary
1371,
1372,5874,Lyburn Aland , 620 - Manor Hill Elementary School
1373,8125,Clari Lorant , 991 - Red Bridge Elementary School
1374,
1375,
1376,
1377,
1378,1378,Overington Lannie , 720 - Red Bridge Academy
1379,
1380,
1381,5883,Feldmark Horst , 902 - Prairie Point Elementary
1382,
1383,
1384,1384,Dorthy Leist , 160 - Alexander Doniphan Elementary School
1385,
1386,5888,Dayle Sennett , 665 - Douglass Elementary
1387,10390,Le Noire , 978 - Whittier Elementary
1388,
1389,10393,Eimile Smallcombe , 204 - Nashua Elementary School
1390,8143,Gibbieson Niel , 665 - Douglass Elementary
1391,3642,Keerl Laurel , 330 - Hillcrest Elementary
1392,10395,Maltman Phillida , 436 - Rising Hill Elementary
1393,
1394,10394,Arty Daly , 151 - Lewis and Clark Elementary School
1395,
1396,
1397,10401,Eilis Perren , 561 - Indian Creek Elementary School
1398,
1399,
1400,10404,Luty Parke , 332 - Briarcliff Elementary
1401,10405,Alpe Elva , 637 - Hazel Grove Elementary
1402,5904,Ariela Trevallion , 491 - Warren Hills Elementary School
1403,3654,Lyda Gallant , 991 - Red Bridge Elementary School
1404,3655,Pickerill Bendicty , 887 - Whitefield Academy
1405,
1406,
1407,10411,Marie-ann Fane , 436 - Rising Hill Elementary
1408,8161,Reddell Ragnar , 991 - Red Bridge Elementary School
1409,
1410,5912,Nott Travers , 667 - English Landing Elementary
1411,1411,Wewell Agnesse , 993 - Gladden Elementary
1412,10416,Loud Clarence , 881 - Graden Elementary
1413,3664,Malvin Robotham , 1061 - Three Trails Elementary
1414,
1415,
1416,
1417,
1418,
1419,
1420,
1421,3672,Marwin Pickup , 357 - Benton Elementary
1422,5924,Riden Halley , 974 - Shoal Creek Elementary School
1423,
1424,
1425,
1426,8179,Strevens Madelena , 718 - Maple Elementary
1427,8180,Kabisch Dede , 942 - Afrikan Centered Education Collegium Campus
1428,5930,Leport Nanon , 497 - Topping Elementary
1429,
1430,
1431,
1432,
1433,1433,Tanitansy Deal , 665 - Douglass Elementary
1434,
1435,
1436,
1437,3688,Barnet Bat , 620 - Manor Hill Elementary School
1438,
1439,1439,Hank Crebo , 248 - Kellybrook Elementary School
1440,8193,Dowling Terri , 620 - Manor Hill Elementary School
1441,3692,Hurich Hedvige , 357 - Benton Elementary
1442,1442,Shearsby Luz , 270 - Maplewood Elementary
1443,
1444,1444,Edgard Benner , 436 - Rising Hill Elementary
1445,5947,Bertina Heake , 497 - Topping Elementary
1446,10450,Winfred Fayers , 357 - Benton Elementary
1447,3698,Mahody Lainey , 683 - Sugar Creek Elementary
1448,10452,Natka Yarwood , 974 - Shoal Creek Elementary School
1449,
1450,
1451,
1452,1452,Yelena Leneham , 731 - Christian Ott Elementary
1453,
1454,8207,Michelle Le , 561 - Indian Creek Elementary School
1455,3706,Clemmens Matilde , 1094 - Liberty Oaks Elementary School
1456,5958,Tybi Laughren , 942 - Afrikan Centered Education Collegium Campus
1457,
1458,1458,Grimsdyke Kay , 851 - Northland Christian
1459,3710,Livingstone Tadio , 189 - Emerson Elementary
1460,
1461,
1462,10462,Kynder Birk , 984 - Center Elementary School
1463,1463,Xever Hanssmann , 114 - Fox Hill Elementary
1464,8217,Pittam Reine , 978 - Whittier Elementary
1465,
1466,
1467,8220,Shandy Fuster , 509 - Gracemor Elementary
1468,1468,Booi Rhys , 667 - English Landing Elementary
1469,5971,Polson Kalie , 369 - Tiffany Ridge Elementary
1470,8223,Celestia Garret , 620 - Manor Hill Elementary School
1471,
1472,
1473,10477,Emylee Paulsson , 571 - Southeast Elementary
1474,
1475,
1476,
1477,5979,Kemm Shandy , 683 - Sugar Creek Elementary
1478,8231,Maiga Allso , 497 - Topping Elementary
1479,1479,Cecelia Grenshiels , 681 - Scott Elementary
1480,5982,Edis Saba , 1061 - Three Trails Elementary
1481,
1482,3733,Jenilee Yakunin , 790 - Boone Elementary School
1483,
1484,5986,Wendover Cherise , 270 - Maplewood Elementary
1485,
1486,8239,O'Criane Dale , 305 - Linden West Elementary
1487,
1488,
1489,8242,Renshell Terrel , 1089 - The Pembroke Hill School
1490,8243,Hall Forker , 204 - Nashua Elementary School
1491,
1492,
1493,5995,Setchell Elane , 160 - Alexander Doniphan Elementary School
1494,3745,O' Loughran , 993 - Gladden Elementary
1495,
1496,
1497,3748,Maximilianus Shottin , 1087 - Gashland Elementary
1498,10501,Bailey Agirre , 209 - University Academy Charter School
1499,10503,Dionisetto Ricki , 497 - Topping Elementary
1500,8253,Barn Capinetti , 718 - Maple Elementary
1501,10505,Clues Alfonso , 248 - Kellybrook Elementary School
1502,
1503,8256,Ekaterina Uttermare , 114 - Fox Hill Elementary
1504,
1505,
1506,6008,Thia Tuckie , 484 - Fairmount Elementary
1507,8260,Albasiny Sean , 620 - Manor Hill Elementary School
1508,
1509,10513,Ros Shilleto , 809 - Hawthorn Elementary
1510,
1511,
1512,
1513,
1514,3765,Asbury Nadia , 288 - Ridgeview Elementary School
1515,
1516,
1517,
1518,10522,Rene Hemstead , 991 - Red Bridge Elementary School
1519,1519,Estcourt Lowrance , 330 - Hillcrest Elementary
1520,
1521,
1522,6024,Neilson Inness , 974 - Shoal Creek Elementary School
1523,10527,Treasaden Margalo , 561 - Indian Creek Elementary School
1524,
1525,10529,Omero Sandeford , 369 - Tiffany Ridge Elementary
1526,
1527,1527,Lesli Trosdall , 426 - Lillian Schumacher Elementary School
1528,3779,Brogden Seymour , 328 - Bell Prairie Elementary
1529,1529,Rawlyns Dan , 637 - Hazel Grove Elementary
1530,6032,Breeds Carolee , 369 - Tiffany Ridge Elementary
1531,8284,Davide Magor , 478 - St. Patrick School
1532,1532,Marya Barstock , 330 - Hillcrest Elementary
1533,8285,Thalia Dayton , 731 - Christian Ott Elementary
1534,
1535,6037,Rydzynski Giorgia , 160 - Alexander Doniphan Elementary School
1536,
1537,1537,Syfax Sherlock , 426 - Lillian Schumacher Elementary School
1538,10533,Walczak Borden , 160 - Alexander Doniphan Elementary School
1539,
1540,8293,Joey Oxer , 204 - Nashua Elementary School
1541,6043,Corbitt Harry , 369 - Tiffany Ridge Elementary
1542,6044,Jaquelyn Barcroft , 681 - Scott Elementary
1543,8296,Gosnell Sherill , 114 - Fox Hill Elementary
1544,10532,Chas Scarth , 697 - Sante Fe Trail Elementary
1545,
1546,3797,Ameline Porte , 665 - Douglass Elementary
1547,3798,Domenico Kalewe , 151 - Lewis and Clark Elementary School
1548,
1549,10544,Robin Wealthall , 736 - Chouteau Elementary
1550,10554,Coraline Mitten , 420 - Union Chapel Elementary
1551,1551,Crewes Clarabelle , 420 - Union Chapel Elementary
1552,
1553,6055,Pina Sandie , 270 - Maplewood Elementary
1554,10558,Le Noire , 357 - Benton Elementary
1555,6057,Leontyne Richfield , 984 - Center Elementary School
1556,
1557,
1558,8311,Kemble Chandal , 697 - Sante Fe Trail Elementary
1559,
1560,
1561,6063,Irnys Zandra , 1061 - Three Trails Elementary
1562,8315,Caughtry Diane-marie , 571 - Southeast Elementary
1563,10567,Mallory Kupis , 509 - Gracemor Elementary
1564,8317,Tripean Magdalena , 484 - Fairmount Elementary
1565,
1566,
1567,
1568,
1569,
1570,
1571,
1572,
1573,8326,Cissy Salle , 881 - Graden Elementary
1574,
1575,
1576,8329,Mussilli Murray , 637 - Hazel Grove Elementary
1577,10581,Saph Dick , 565 - St. Paul's Episcopal Day School
1578,10582,Siana Pirot , 209 - University Academy Charter School
1579,
1580,3831,O'Rodane Roseline , 718 - Maple Elementary
1581,10585,Jermaine Buxcy , 993 - Gladden Elementary
1582,
1583,
1584,6086,Birchall Caitrin , 1087 - Gashland Elementary
1585,1585,Ronna Brignall , 487 - Ravenwood Elementary
1586,8338,Jean Pete , 288 - Ridgeview Elementary School
1587,
1588,
1589,
1590,
1591,
1592,8345,Pieter MacVanamy , 887 - Whitefield Academy
1593,
1594,
1595,6097,Fraschini Roy , 902 - Prairie Point Elementary
1596,
1597,3848,Dannel Rosmunda , 436 - Rising Hill Elementary
1598,
1599,10603,Allayne Scarfe , 114 - Fox Hill Elementary
1600,
1601,
1602,
1603,
1604,6106,Bellenger Peter , 305 - Linden West Elementary
1605,
1606,
1607,
1608,
1609,1609,Antoszczyk Samaria , 974 - Shoal Creek Elementary School
1610,
1611,
1612,10616,O'Cassidy Abran , 902 - Prairie Point Elementary
1613,1613,Marthena Birk , 288 - Ridgeview Elementary School
1614,8367,Dorn Charlot , 736 - Chouteau Elementary
1615,3866,Simondson Ianthe , 1089 - The Pembroke Hill School
1616,8369,Maling Zack , 478 - St. Patrick School
1617,1617,Glenden Searl , 975 - New Stanley Elementary
1618,1618,Warwick Carlota , 1089 - The Pembroke Hill School
1619,
1620,
1621,1621,Normanville Dede , 667 - English Landing Elementary
1622,
1623,8376,Gates McVie , 1052 - Renner Elementary
1624,
1625,3876,Jeannin Ferdinand , 720 - Red Bridge Academy
1626,8370,Ernestus Ormerod , 209 - University Academy Charter School
1627,10630,Ramsbotham Mattias , 731 - Christian Ott Elementary
1628,
1629,8378,Pace Repp , 942 - Afrikan Centered Education Collegium Campus
1630,
1631,
1632,
1633,
1634,
1635,
1636,
1637,1637,Sketh Corabelle , 330 - Hillcrest Elementary
1638,
1639,10643,Valintine Peggy , 681 - Scott Elementary
1640,
1641,
1642,
1643,
1644,1644,Deddum Britte , 160 - Alexander Doniphan Elementary School
1645,8398,Worge Javier , 305 - Linden West Elementary
1646,
1647,
1648,
1649,
1650,8403,Gransden Jobyna , 984 - Center Elementary School
1651,10655,Charlena Ablewhite , 357 - Benton Elementary
1652,
1653,
1654,
1655,
1656,6158,End Nicolai , 151 - Lewis and Clark Elementary School
1657,
1658,8411,Malva Dovydenas , 942 - Afrikan Centered Education Collegium Campus
1659,
1660,
1661,6163,Ina Foresight , 975 - New Stanley Elementary
1662,1662,Brucie Ianizzi , 991 - Red Bridge Elementary School
1663,1663,Barr Favela , 426 - Lillian Schumacher Elementary School
1664,8416,Rania Pirrey , 330 - Hillcrest Elementary
1665,
1666,6168,Anastasia MacGowing , 1025 - Franklin Elementary School
1667,8419,Jaquelin Prynne , 683 - Sugar Creek Elementary
1668,
1669,
1670,
1671,3922,Mead Dash , 487 - Ravenwood Elementary
1672,
1673,
1674,
1675,
1676,
1677,
1678,8415,Kylie Drees , 942 - Afrikan Centered Education Collegium Campus
1679,1679,Feliks Skittreal , 436 - Rising Hill Elementary
1680,3930,Weld Desmond , 487 - Ravenwood Elementary
1681,8433,Theresita Leggs , 509 - Gracemor Elementary
1682,8435,Lendrem Annadiana , 497 - Topping Elementary
1683,
1684,
1685,10685,Basile Lambertini , 332 - Briarcliff Elementary
1686,6188,Bucky Volke , 491 - Warren Hills Elementary School
1687,8439,Cavell Nichole , 565 - St. Paul's Episcopal Day School
1688,
1689,
1690,1690,Whitmarsh Demetra , 565 - St. Paul's Episcopal Day School
1691,1691,Luck Nollie , 491 - Warren Hills Elementary School
1692,
1693,
1694,6192,Tommi Willows , 667 - English Landing Elementary
1695,1695,Rochette Wards , 1087 - Gashland Elementary
1696,10699,Lillian Milmore , 114 - Fox Hill Elementary
1697,10700,Foss Sturror , 681 - Scott Elementary
1698,
1699,
1700,
1701,
1702,1702,Jim Raitt , 902 - Prairie Point Elementary
1703,10682,Hussey Nat , 369 - Tiffany Ridge Elementary
1704,1704,Jeremy Eayres , 984 - Center Elementary School
1705,3955,Grisenthwaite Laural , 984 - Center Elementary School
1706,
1707,1707,O'Lunny Chiarra , 1094 - Liberty Oaks Elementary School
1708,8457,Caldicot Thornton , 720 - Red Bridge Academy
1709,1709,Tuting Desiri , 357 - Benton Elementary
1710,6212,Lockley Duncan , 902 - Prairie Point Elementary
1711,8464,Posselt Clarabelle , 898 - Hopewell Elementary
1712,6214,Lynna Sitch , 975 - New Stanley Elementary
1713,
1714,
1715,
1716,3967,Laina Bukowski , 420 - Union Chapel Elementary
1717,
1718,
1719,10707,Emili Gemeau , 509 - Gracemor Elementary
1720,
1721,1721,Rooksby Betta , 620 - Manor Hill Elementary School
1722,10690,Wenzel Fidole , 978 - Whittier Elementary
1723,3974,Clemmy Tubbs , 902 - Prairie Point Elementary
1724,8477,Bartholomew Skedgell , 881 - Graden Elementary
1725,
1726,1726,Stacey Markova , 332 - Briarcliff Elementary
1727,3978,Cletus Gergus , 887 - Whitefield Academy
1728,8481,Zulema Hughf , 667 - English Landing Elementary
1729,
1730,1730,Tamplin Nita , 328 - Bell Prairie Elementary
1731,
1732,
1733,10737,Lilleyman Stanly , 509 - Gracemor Elementary
1734,8487,Loyndon Ula , 851 - Northland Christian
1735,
1736,
1737,
1738,
1739,
1740,
1741,1741,Mattiacci Hannie , 675 - Chinn Elementary
1742,
1743,8496,Korry Garmanson , 571 - Southeast Elementary
1744,
1745,
1746,10750,Chelsie Henric , 426 - Lillian Schumacher Elementary School
1747,8500,Ninetta Doohan , 790 - Boone Elementary School
1748,10751,Kerwood Jennee , 1087 - Gashland Elementary
1749,
1750,
1751,1751,Harvey Dow , 736 - Chouteau Elementary
1752,6253,Abramamov Levi , 1087 - Gashland Elementary
1753,4004,Enderle Nikolai , 151 - Lewis and Clark Elementary School
1754,8506,Elke Gosson , 565 - St. Paul's Episcopal Day School
1755,8508,Bowra Cull , 248 - Kellybrook Elementary School
1756,
1757,
1758,
1759,
1760,
1761,1761,McClymond Valenka , 731 - Christian Ott Elementary
1762,6263,Mavra Hambling , 975 - New Stanley Elementary
1763,4014,Lipp Madlen , 561 - Indian Creek Elementary School
1764,6266,Galland Viola , 487 - Ravenwood Elementary
1765,4016,Blithe Kienzle , 561 - Indian Creek Elementary School
1766,
1767,6269,Lynnet Everist , 357 - Benton Elementary
1768,
1769,
1770,1770,Kemet Chucho , 697 - Sante Fe Trail Elementary
1771,1771,Annmarie Sterman , 580 - Line Creek Elementary
1772,6274,Fonquernie Vittorio , 305 - Linden West Elementary
1773,
1774,8523,Jarman Keslie , 675 - Chinn Elementary
1775,1775,Adorne Makepeace , 580 - Line Creek Elementary
1776,
1777,10765,De Launde , 942 - Afrikan Centered Education Collegium Campus
1778,
1779,
1780,6282,Roxana Tredinnick , 248 - Kellybrook Elementary School
1781,10784,Sherilyn Grigorkin , 665 - Douglass Elementary
1782,
1783,
1784,
1785,1785,Schumacher Andromache , 984 - Center Elementary School
1786,6287,Weatherill Ripley , 357 - Benton Elementary
1787,8524,Edgeler Bank , 898 - Hopewell Elementary
1788,
1789,4040,Huke Alvan , 332 - Briarcliff Elementary
1790,6292,Lambkin Fan , 484 - Fairmount Elementary
1791,8544,Clem Newbury , 675 - Chinn Elementary
1792,4043,Adelind Eustice , 487 - Ravenwood Elementary
1793,
1794,
1795,1795,Scholer Raviv , 436 - Rising Hill Elementary
1796,10775,Maurise Gallaway , 1025 - Franklin Elementary School
1797,
1798,1798,McKeever Maxi , 571 - Southeast Elementary
1799,4050,Yoshiko Matz , 328 - Bell Prairie Elementary
1800,10804,Matusson Sari , 151 - Lewis and Clark Elementary School
1801,4052,Foltin Clayton , 160 - Alexander Doniphan Elementary School
1802,6304,Neil Bartolini , 993 - Gladden Elementary
1803,8556,Warner Hill , 330 - Hillcrest Elementary
1804,10808,Combe Astra , 1089 - The Pembroke Hill School
1805,1805,Arabele Carleton , 209 - University Academy Charter School
1806,
1807,
1808,8561,Shilleto Harald , 1052 - Renner Elementary
1809,
1810,
1811,4062,Harriss Andriette , 898 - Hopewell Elementary
1812,
1813,10817,Pohls Patton , 1061 - Three Trails Elementary
1814,8567,Redmond Julius , 881 - Graden Elementary
1815,
1816,1816,Zitella Jeavons , 561 - Indian Creek Elementary School
1817,
1818,
1819,
1820,1820,Donizeau Melisande , 902 - Prairie Point Elementary
1821,4071,Sheppard Almire , 790 - Boone Elementary School
1822,6324,Lois Issacof , 478 - St. Patrick School
1823,
1824,
1825,
1826,
1827,
1828,
1829,10833,Kirsten Labadini , 1052 - Renner Elementary
1830,8583,Best Jordan , 328 - Bell Prairie Elementary
1831,
1832,
1833,
1834,
1835,8588,Dunstan Muzzini , 270 - Maplewood Elementary
1836,8589,Dumini Archibold , 637 - Hazel Grove Elementary
1837,1837,Trent Thorrold , 902 - Prairie Point Elementary
1838,8591,Spriggs Kimble , 497 - Topping Elementary
1839,
1840,
1841,
1842,
1843,1843,Fasset Leilah , 683 - Sugar Creek Elementary
1844,10848,Halls Johannes , 330 - Hillcrest Elementary
1845,10849,Parry Bursell , 580 - Line Creek Elementary
1846,
1847,1847,Plom Ingemar , 736 - Chouteau Elementary
1848,4099,Stalley Fredrick , 718 - Maple Elementary
1849,
1850,10854,Bartolomeu Whitney , 288 - Ridgeview Elementary School
1851,
1852,8605,Goodin Violetta , 426 - Lillian Schumacher Elementary School
1853,1853,Adoree Norcross , 571 - Southeast Elementary
1854,
1855,
1856,
1857,8610,Matthew Denkin , 497 - Topping Elementary
1858,10862,Gerick Rucklesse , 330 - Hillcrest Elementary
1859,8612,Alfie Cassidy , 697 - Sante Fe Trail Elementary
1860,1860,Vedstra Winnie , 328 - Bell Prairie Elementary
1861,4112,Molan Mellie , 426 - Lillian Schumacher Elementary School
1862,4113,Sebastiano Witherow , 565 - St. Paul's Episcopal Day School
1863,8616,Sinnott Radcliffe , 478 - St. Patrick School
1864,
1865,1865,Dicker Brendan , 731 - Christian Ott Elementary
1866,6367,Stuckley Melesa , 681 - Scott Elementary
1867,6368,Messer Kippie , 189 - Emerson Elementary
1868,10872,Lois Ovid , 487 - Ravenwood Elementary
1869,
1870,
1871,10866,Doloritas Jurs , 151 - Lewis and Clark Elementary School
1872,
1873,
1874,
1875,
1876,1876,Charlene Ranger , 620 - Manor Hill Elementary School
1877,
1878,6380,Eba Vonderdell , 332 - Briarcliff Elementary
1879,6381,Francklin Bussen , 975 - New Stanley Elementary
1880,1880,Ailyn Hargey , 270 - Maplewood Elementary
1881,
1882,6384,Gareth Guppy , 332 - Briarcliff Elementary
1883,
1884,
1885,
1886,
1887,
1888,
1889,
1890,6392,Goacher Irvin , 420 - Union Chapel Elementary
1891,
1892,1892,Nickolas Braferton , 565 - St. Paul's Episcopal Day School
1893,1893,Zollie Dell , 993 - Gladden Elementary
1894,10898,Kali Metcalf , 991 - Red Bridge Elementary School
1895,1895,Parlett Anatola , 330 - Hillcrest Elementary
1896,6394,Stinky Swett , 637 - Hazel Grove Elementary
1897,
1898,4149,Laflin Lammond , 1061 - Three Trails Elementary
1899,1899,Allx Gibbens , 160 - Alexander Doniphan Elementary School
1900,6402,Candi Rosling , 1052 - Renner Elementary
1901,10904,Lavena Callow , 332 - Briarcliff Elementary
1902,
1903,
1904,
1905,8658,Winslow Pheasant , 942 - Afrikan Centered Education Collegium Campus
1906,1906,Darington Trescha , 209 - University Academy Charter School
1907,8659,Pirnie Adella , 902 - Prairie Point Elementary
1908,4159,Lorrin Wentworth , 580 - Line Creek Elementary
1909,6410,Anna-diane Livezley , 305 - Linden West Elementary
1910,4161,Ferrieri Gabrielle , 974 - Shoal Creek Elementary School
1911,
1912,1912,Binni Maleney , 809 - Hawthorn Elementary
1913,6415,Clovan Emelia , 1094 - Liberty Oaks Elementary School
1914,6416,Dilland Charmion , 204 - Nashua Elementary School
1915,
1916,
1917,
1918,
1919,
1920,
1921,10925,Tybi Beretta , 204 - Nashua Elementary School
1922,
1923,
1924,
1925,
1926,8679,Raggles Genia , 478 - St. Patrick School
1927,1927,Gard Turbayne , 637 - Hazel Grove Elementary
1928,
1929,6431,McTeague Derrek , 902 - Prairie Point Elementary
1930,1930,Cheslie Bocock , 683 - Sugar Creek Elementary
1931,6433,Floria Cartmael , 328 - Bell Prairie Elementary
1932,
1933,8682,Bruna Junina , 330 - Hillcrest Elementary
1934,6436,Grigore Davidson , 332 - Briarcliff Elementary
1935,10930,Christal Jedraszek , 571 - Southeast Elementary
1936,1936,Losemann Farly , 1061 - Three Trails Elementary
1937,4188,Meade Deadman , 731 - Christian Ott Elementary
1938,10942,Zane Lisciandro , 993 - Gladden Elementary
1939,8683,Rupert Davidof , 580 - Line Creek Elementary
1940,
1941,
1942,
1943,6445,Goody Aime , 357 - Benton Elementary
1944,
1945,
1946,10950,Mordey Leonerd , 357 - Benton Elementary
1947,
1948,
1949,
1950,4201,Abramowsky Faustina , 697 - Sante Fe Trail Elementary
1951,
1952,6454,Tobey Vayne , 718 - Maple Elementary
1953,
1954,
1955,4206,Herbert Petasch , 898 - Hopewell Elementary
1956,4207,Angelo Rugg , 984 - Center Elementary School
1957,
1958,6460,Daniele Paget , 189 - Emerson Elementary
1959,10959,Jess Tarrant , 978 - Whittier Elementary
1960,1960,Cully Comins , 898 - Hopewell Elementary
1961,4211,Cherri Hinken , 887 - Whitefield Academy
1962,6463,McBrier Vern , 369 - Tiffany Ridge Elementary
1963,8716,Keynes Dimitri , 942 - Afrikan Centered Education Collegium Campus
1964,4215,Jennifer Gatty , 478 - St. Patrick School
1965,4216,Bredee Tove , 487 - Ravenwood Elementary
1966,6468,Alexei Nolin , 565 - St. Paul's Episcopal Day School
1967,
1968,
1969,4220,Buckenham Filberte , 204 - Nashua Elementary School
1970,10974,Bondley Cybill , 420 - Union Chapel Elementary
1971,10975,Thurston Buckston , 736 - Chouteau Elementary
1972,6474,Farryann Vance , 974 - Shoal Creek Elementary School
1973,4224,Growden Nalani , 151 - Lewis and Clark Elementary School
1974,8718,Pedwell Mason , 736 - Chouteau Elementary
1975,
1976,8725,Whimper Ann-marie , 675 - Chinn Elementary
1977,1977,Brandy Van , 420 - Union Chapel Elementary
1978,10982,Buckthorpe Rodd , 565 - St. Paul's Episcopal Day School
1979,
1980,
1981,
1982,
1983,6485,Kearney Rhodef , 637 - Hazel Grove Elementary
1984,
1985,
1986,
1987,
1988,
1989,
1990,
1991,
1992,1992,Sheward Dierdre , 1061 - Three Trails Elementary
1993,10997,Norsister Lynnelle , 942 - Afrikan Centered Education Collegium Campus
1994,8747,Carr Mahalia , 720 - Red Bridge Academy
1995,8748,Duffett Blane , 620 - Manor Hill Elementary School
1996,
1997,1997,Piper Cundict , 620 - Manor Hill Elementary School
1998,4248,Keats Kippy , 665 - Douglass Elementary
1999,
2000,6502,Timi Depport , 160 - Alexander Doniphan Elementary School
2001,
2002,2002,Madelin Mew , 887 - Whitefield Academy
2003,6505,Sigfrid Redmile , 898 - Hopewell Elementary
2004,2004,Tevlin Conan , 902 - Prairie Point Elementary
2005,8757,Sybila Hakking , 1094 - Liberty Oaks Elementary School
2006,
2007,4258,Marv Perl , 328 - Bell Prairie Elementary
2008,
2009,8762,Phillis Daniello , 436 - Rising Hill Elementary
2010,
2011,
2012,
2013,
2014,4265,Luetkemeyer Edgard , 984 - Center Elementary School
2015,
2016,
2017,8770,Brockwell Anne-marie , 675 - Chinn Elementary
2018,6520,Richel Julietta , 978 - Whittier Elementary
2019,2019,Lidia Judkins , 369 - Tiffany Ridge Elementary
2020,4270,Gerrie Mattes , 731 - Christian Ott Elementary
2021,6523,Karlee Campione , 491 - Warren Hills Elementary School
2022,8771,Findley Hellyar , 731 - Christian Ott Elementary
2023,
2024,
2025,
2026,8779,Hattie Yaldren , 902 - Prairie Point Elementary
2027,
2028,
2029,6531,Phyllys Fladgate , 565 - St. Paul's Episcopal Day School
2030,8782,Beretta Xever , 436 - Rising Hill Elementary
2031,
2032,2032,Dochon Harley , 426 - Lillian Schumacher Elementary School
2033,
2034,
2035,
2036,6538,Summerson Bella , 1087 - Gashland Elementary
2037,2037,Cow Clio , 1089 - The Pembroke Hill School
2038,4288,Brumwell Lizette , 369 - Tiffany Ridge Elementary
2039,
2040,
2041,
2042,8795,Blinni Elks , 151 - Lewis and Clark Elementary School
2043,
2044,
2045,
2046,
2047,2047,Merriday Merrielle , 580 - Line Creek Elementary
2048,
2049,
2050,
2051,6553,Steven Tease , 369 - Tiffany Ridge Elementary
2052,
2053,
2054,
2055,4306,Millott Aloise , 436 - Rising Hill Elementary
2056,4307,Waiter Taffe , 978 - Whittier Elementary
2057,8810,Brannigan Hillel , 697 - Sante Fe Trail Elementary
2058,
2059,
2060,
2061,
2062,
2063,
2064,
2065,8818,Allonby Mirabel , 736 - Chouteau Elementary
2066,
2067,
2068,4319,Leathers Brandtr , 637 - Hazel Grove Elementary
2069,2069,Edwina Shirrell , 509 - Gracemor Elementary
2070,
2071,
2072,
2073,
2074,2074,Carrane Winnifred , 718 - Maple Elementary
2075,8828,Parysowna Ree , 204 - Nashua Elementary School
2076,
2077,
2078,
2079,4330,Tommasuzzi Hugues , 160 - Alexander Doniphan Elementary School
2080,
2081,
2082,6584,Balazs Andrej , 978 - Whittier Elementary
2083,
2084,8837,Wanklyn Stanfield , 736 - Chouteau Elementary
2085,2085,Hardern Gretna , 497 - Topping Elementary
2086,
2087,
2088,
2089,6591,Norrie Addams , 270 - Maplewood Elementary
2090,6592,Bettlestone Johnathon , 1052 - Renner Elementary
2091,
2092,8845,Serris Mikael , 1052 - Renner Elementary
2093,
2094,8847,Bernardeschi Nata , 565 - St. Paul's Episcopal Day School
2095,
2096,
2097,
2098,
2099,
2100,
2101,4352,Boyton Merline , 898 - Hopewell Elementary
2102,4353,Lates Joanne , 898 - Hopewell Elementary
2103,
2104,
2105,6607,Leonid Mayfield , 681 - Scott Elementary
2106,
2107,
2108,
2109,
2110,
2111,2111,Cassandre Rutley , 491 - Warren Hills Elementary School
2112,
2113,
2114,8867,Brooks Guido , 328 - Bell Prairie Elementary
2115,
2116,2116,Grierson Halsy , 189 - Emerson Elementary
2117,
2118,
2119,2119,Redmille Shaw , 565 - St. Paul's Episcopal Day School
2120,6622,Clarson Brigida , 288 - Ridgeview Elementary School
2121,6623,Forbes Pires , 1089 - The Pembroke Hill School
2122,4373,Filip Bransdon , 720 - Red Bridge Academy
2123,
2124,6626,Hansed Shannen , 484 - Fairmount Elementary
2125,
2126,4377,Blatchford Estella , 809 - Hawthorn Elementary
2127,8879,Macieja Marj , 1025 - Franklin Elementary School
2128,2128,Edd Aven , 328 - Bell Prairie Elementary
2129,4379,Vidovic Farron , 993 - Gladden Elementary
2130,
2131,
2132,
2133,8886,Galer Whitaker , 328 - Bell Prairie Elementary
2134,2134,Jud Nickolls , 1061 - Three Trails Elementary
2135,6637,Tove Bulfit , 487 - Ravenwood Elementary
2136,
2137,
2138,
2139,4390,Clevie Danaher , 332 - Briarcliff Elementary
2140,
2141,8894,Welbie Rettie , 683 - Sugar Creek Elementary
2142,
2143,4394,Sproston Penny , 1025 - Franklin Elementary School
2144,
2145,
2146,
2147,
2148,
2149,
2150,
2151,
2152,8905,Hy Diperaus , 851 - Northland Christian
2153,2153,Egor Grave , 683 - Sugar Creek Elementary
2154,4404,Reidshaw Westleigh , 991 - Red Bridge Elementary School
2155,4406,Dudman Corbett , 620 - Manor Hill Elementary School
2156,8909,Kleinplac Jessika , 978 - Whittier Elementary
2157,4408,Kacy Lamperd , 1061 - Three Trails Elementary
2158,2158,Buyers Eugenia , 984 - Center Elementary School
2159,6661,Broadhurst Tracey , 151 - Lewis and Clark Elementary School
2160,
2161,
2162,8915,Nappy Fish , 1089 - The Pembroke Hill School
2163,
2164,
2165,6667,Dulcinea Cantera , 1094 - Liberty Oaks Elementary School
2166,
2167,4418,Inglefield Delphinia , 270 - Maplewood Elementary
2168,6669,Catrina Lalevee , 809 - Hawthorn Elementary
2169,8922,Leah Daniellot , 248 - Kellybrook Elementary School
2170,4421,Krug Diane , 160 - Alexander Doniphan Elementary School
2171,2171,Quinton Bernli , 898 - Hopewell Elementary
2172,6674,Scandroot Lind , 681 - Scott Elementary
2173,6675,Christon Robinet , 497 - Topping Elementary
2174,
2175,6677,Pedrol Sal , 420 - Union Chapel Elementary
2176,
2177,
2178,2178,Brunicke Ingeberg , 1087 - Gashland Elementary
2179,4430,Gregoor Yarn , 720 - Red Bridge Academy
2180,
2181,2181,Candide Skeete , 683 - Sugar Creek Elementary
2182,6684,Kayley Temperley , 248 - Kellybrook Elementary School
2183,8935,Raison Devlin , 978 - Whittier Elementary
2184,4435,Elysha Doak , 204 - Nashua Elementary School
2185,
2186,
2187,8936,Saltsberger Octavia , 675 - Chinn Elementary
2188,8940,Grosvener Farica , 675 - Chinn Elementary
2189,
2190,
2191,
2192,8945,Punch Kipper , 484 - Fairmount Elementary
2193,
2194,4445,Hugibert McSaul , 720 - Red Bridge Academy
2195,
2196,
2197,4448,Willow Coatts , 332 - Briarcliff Elementary
2198,8951,Mallatratt Oriana , 1089 - The Pembroke Hill School
2199,8952,Moyser Ofelia , 675 - Chinn Elementary
2200,4451,McGifford Cullan , 991 - Red Bridge Elementary School
2201,6703,Moise Scantlebury , 683 - Sugar Creek Elementary
2202,
2203,4454,Howells Franciskus , 580 - Line Creek Elementary
2204,
2205,8958,Zaria Jacmar , 330 - Hillcrest Elementary
2206,
2207,
2208,
2209,
2210,
2211,
2212,
2213,
2214,
2215,6717,Grzeszczyk Joelie , 683 - Sugar Creek Elementary
2216,8968,Kelberman Vance , 565 - St. Paul's Episcopal Day School
2217,
2218,
2219,6721,Sheffie Symonds , 305 - Linden West Elementary
2220,2220,Roostan Lyn , 718 - Maple Elementary
2221,4472,Joey Starsmeare , 436 - Rising Hill Elementary
2222,8974,Showl Darb , 487 - Ravenwood Elementary
2223,
2224,
2225,
2226,
2227,
2228,2228,Whapple Ermentrude , 620 - Manor Hill Elementary School
2229,8981,Corney Statham , 497 - Topping Elementary
2230,
2231,8984,Katuscha Guinness , 357 - Benton Elementary
2232,
2233,
2234,
2235,
2236,6738,Rania Kinde , 898 - Hopewell Elementary
2237,
2238,
2239,
2240,
2241,4492,Hube Shanahan , 667 - English Landing Elementary
2242,
2243,
2244,
2245,
2246,
2247,
2248,
2249,
2250,
