digraph "DataStructure/BinarySearchTreeTester.hpp"
{
 // LATEX_PDF_SIZE
  edge [fontname="Helvetica",fontsize="10",labelfontname="Helvetica",labelfontsize="10"];
  node [fontname="Helvetica",fontsize="10",shape=record];
  Node1 [label="DataStructure/BinarySearch\lTreeTester.hpp",height=0.2,width=0.4,color="black", fillcolor="grey75", style="filled", fontcolor="black",tooltip=" "];
  Node1 -> Node2 [color="midnightblue",fontsize="10",style="solid",fontname="Helvetica"];
  Node2 [label="iostream",height=0.2,width=0.4,color="grey75", fillcolor="white", style="filled",tooltip=" "];
  Node1 -> Node3 [color="midnightblue",fontsize="10",style="solid",fontname="Helvetica"];
  Node3 [label="string",height=0.2,width=0.4,color="grey75", fillcolor="white", style="filled",tooltip=" "];
  Node1 -> Node4 [color="midnightblue",fontsize="10",style="solid",fontname="Helvetica"];
  Node4 [label="../cuTEST/TesterBase.hpp",height=0.2,width=0.4,color="black", fillcolor="white", style="filled",URL="$TesterBase_8hpp.html",tooltip=" "];
  Node4 -> Node3 [color="midnightblue",fontsize="10",style="solid",fontname="Helvetica"];
  Node4 -> Node5 [color="midnightblue",fontsize="10",style="solid",fontname="Helvetica"];
  Node5 [label="list",height=0.2,width=0.4,color="grey75", fillcolor="white", style="filled",tooltip=" "];
  Node4 -> Node6 [color="midnightblue",fontsize="10",style="solid",fontname="Helvetica"];
  Node6 [label="vector",height=0.2,width=0.4,color="grey75", fillcolor="white", style="filled",tooltip=" "];
  Node4 -> Node7 [color="midnightblue",fontsize="10",style="solid",fontname="Helvetica"];
  Node7 [label="functional",height=0.2,width=0.4,color="grey75", fillcolor="white", style="filled",tooltip=" "];
  Node4 -> Node8 [color="midnightblue",fontsize="10",style="solid",fontname="Helvetica"];
  Node8 [label="fstream",height=0.2,width=0.4,color="grey75", fillcolor="white", style="filled",tooltip=" "];
  Node1 -> Node9 [color="midnightblue",fontsize="10",style="solid",fontname="Helvetica"];
  Node9 [label="../Utilities/Menu.hpp",height=0.2,width=0.4,color="black", fillcolor="white", style="filled",URL="$Menu_8hpp.html",tooltip=" "];
  Node9 -> Node2 [color="midnightblue",fontsize="10",style="solid",fontname="Helvetica"];
  Node9 -> Node3 [color="midnightblue",fontsize="10",style="solid",fontname="Helvetica"];
  Node9 -> Node6 [color="midnightblue",fontsize="10",style="solid",fontname="Helvetica"];
  Node9 -> Node10 [color="midnightblue",fontsize="10",style="solid",fontname="Helvetica"];
  Node10 [label="cstdlib",height=0.2,width=0.4,color="grey75", fillcolor="white", style="filled",tooltip=" "];
  Node9 -> Node11 [color="midnightblue",fontsize="10",style="solid",fontname="Helvetica"];
  Node11 [label="limits",height=0.2,width=0.4,color="grey75", fillcolor="white", style="filled",tooltip=" "];
  Node9 -> Node12 [color="midnightblue",fontsize="10",style="solid",fontname="Helvetica"];
  Node12 [label="map",height=0.2,width=0.4,color="grey75", fillcolor="white", style="filled",tooltip=" "];
  Node9 -> Node7 [color="midnightblue",fontsize="10",style="solid",fontname="Helvetica"];
  Node1 -> Node13 [color="midnightblue",fontsize="10",style="solid",fontname="Helvetica"];
  Node13 [label="../Utilities/StringUtil.hpp",height=0.2,width=0.4,color="black", fillcolor="white", style="filled",URL="$StringUtil_8hpp.html",tooltip=" "];
  Node13 -> Node3 [color="midnightblue",fontsize="10",style="solid",fontname="Helvetica"];
  Node13 -> Node14 [color="midnightblue",fontsize="10",style="solid",fontname="Helvetica"];
  Node14 [label="sstream",height=0.2,width=0.4,color="grey75", fillcolor="white", style="filled",tooltip=" "];
  Node1 -> Node15 [color="midnightblue",fontsize="10",style="solid",fontname="Helvetica"];
  Node15 [label="../Utilities/Logger.hpp",height=0.2,width=0.4,color="black", fillcolor="white", style="filled",URL="$Logger_8hpp.html",tooltip=" "];
  Node15 -> Node16 [color="midnightblue",fontsize="10",style="solid",fontname="Helvetica"];
  Node16 [label="chrono",height=0.2,width=0.4,color="grey75", fillcolor="white", style="filled",tooltip=" "];
  Node15 -> Node2 [color="midnightblue",fontsize="10",style="solid",fontname="Helvetica"];
  Node15 -> Node8 [color="midnightblue",fontsize="10",style="solid",fontname="Helvetica"];
  Node15 -> Node3 [color="midnightblue",fontsize="10",style="solid",fontname="Helvetica"];
  Node15 -> Node17 [color="midnightblue",fontsize="10",style="solid",fontname="Helvetica"];
  Node17 [label="iomanip",height=0.2,width=0.4,color="grey75", fillcolor="white", style="filled",tooltip=" "];
  Node1 -> Node18 [color="midnightblue",fontsize="10",style="solid",fontname="Helvetica"];
  Node18 [label="../Exceptions/NotImplemented\lException.hpp",height=0.2,width=0.4,color="black", fillcolor="white", style="filled",URL="$NotImplementedException_8hpp.html",tooltip=" "];
  Node18 -> Node19 [color="midnightblue",fontsize="10",style="solid",fontname="Helvetica"];
  Node19 [label="stdexcept",height=0.2,width=0.4,color="grey75", fillcolor="white", style="filled",tooltip=" "];
  Node18 -> Node3 [color="midnightblue",fontsize="10",style="solid",fontname="Helvetica"];
  Node1 -> Node20 [color="midnightblue",fontsize="10",style="solid",fontname="Helvetica"];
  Node20 [label="BinarySearchTreeNode.hpp",height=0.2,width=0.4,color="black", fillcolor="white", style="filled",URL="$BinarySearchTreeNode_8hpp.html",tooltip=" "];
  Node20 -> Node18 [color="midnightblue",fontsize="10",style="solid",fontname="Helvetica"];
  Node1 -> Node21 [color="midnightblue",fontsize="10",style="solid",fontname="Helvetica"];
  Node21 [label="BinarySearchTree.hpp",height=0.2,width=0.4,color="black", fillcolor="white", style="filled",URL="$BinarySearchTree_8hpp.html",tooltip=" "];
  Node21 -> Node20 [color="midnightblue",fontsize="10",style="solid",fontname="Helvetica"];
  Node21 -> Node15 [color="midnightblue",fontsize="10",style="solid",fontname="Helvetica"];
}
